<?xml version="1.0" standalone="no"?>
<!DOCTYPE svg PUBLIC "-//W3C//DTD SVG 20010904//EN"
 "http://www.w3.org/TR/2001/REC-SVG-20010904/DTD/svg10.dtd">
<svg version="1.0" xmlns="http://www.w3.org/2000/svg"
 width="7309.000000pt" height="3008.000000pt" viewBox="0 0 7309.000000 3008.000000"
 preserveAspectRatio="xMidYMid meet">

<g transform="translate(0.000000,3008.000000) scale(0.100000,-0.100000)"
fill="#000000" stroke="none">
<path d="M14645 30073 c-837 -41 -1778 -429 -2685 -1107 -873 -652 -1617
-1515 -2011 -2330 -101 -210 -145 -325 -278 -722 -638 -1909 -1013 -3871
-1456 -7614 -222 -1877 -387 -3554 -565 -5720 -125 -1517 -207 -2241 -411
-3620 -57 -382 -86 -571 -243 -1565 -36 -225 -101 -662 -146 -970 -130 -896
-219 -1402 -326 -1860 -222 -947 -522 -1621 -978 -2195 -121 -152 -433 -466
-576 -579 -423 -335 -852 -579 -1284 -727 -71 -24 -134 -44 -142 -44 -7 0 -22
13 -33 29 l-21 28 31 84 c45 124 97 333 114 464 61 468 -71 868 -395 1194
-314 316 -689 531 -1070 612 -140 30 -425 33 -570 5 -447 -86 -937 -356 -1221
-672 -237 -265 -379 -608 -379 -919 0 -331 131 -611 426 -910 395 -400 826
-622 1359 -702 249 -36 784 -18 1205 43 1818 260 3374 1320 4303 2928 296 514
566 1180 827 2042 304 1004 486 1891 729 3555 464 3174 781 5740 1106 8959
268 2654 443 4154 651 5590 41 283 99 697 129 920 130 961 178 1244 280 1650
197 785 545 1501 999 2050 414 502 953 901 1566 1160 69 29 164 70 212 91 104
46 171 63 216 54 27 -5 32 -10 27 -23 -4 -9 -31 -85 -60 -167 -213 -606 -152
-1083 192 -1507 113 -140 339 -338 523 -458 197 -129 439 -227 655 -266 121
-21 372 -24 490 -5 451 71 965 339 1269 661 196 208 323 450 372 708 20 105
22 298 4 402 -110 656 -760 1206 -1630 1380 -314 63 -807 93 -1205 73z"/>
<path d="M53720 24229 c-1044 -75 -1988 -664 -2553 -1594 -152 -250 -269 -515
-460 -1045 -388 -1076 -661 -2161 -837 -3330 -49 -325 -70 -427 -117 -574 -71
-221 -159 -372 -287 -494 -130 -123 -288 -198 -507 -239 -128 -24 -555 -25
-784 -1 -336 35 -485 32 -633 -14 -222 -68 -364 -222 -437 -473 -30 -102 -55
-255 -55 -332 l0 -53 1190 0 c655 0 1190 -2 1190 -4 0 -2 -58 -334 -130 -737
-71 -404 -188 -1069 -260 -1479 -312 -1773 -521 -2865 -1070 -5585 -452 -2241
-1089 -5313 -1161 -5600 -88 -350 -244 -739 -434 -1082 -249 -450 -471 -694
-760 -838 -233 -116 -472 -134 -753 -59 -142 38 -333 123 -475 211 l-38 24 46
35 c25 20 105 76 178 126 285 195 325 241 404 456 126 344 219 671 263 922 16
91 24 181 27 330 l5 205 -32 48 c-89 132 -442 320 -701 373 -125 25 -200 16
-344 -41 -261 -103 -570 -280 -756 -432 -96 -78 -232 -220 -291 -303 -95 -134
-174 -329 -219 -540 -30 -142 -33 -407 -5 -555 104 -559 491 -1039 1056 -1309
355 -169 755 -245 1238 -233 252 6 354 19 572 73 368 91 720 269 1042 526 135
108 421 394 538 538 562 693 1106 1753 1507 2935 345 1019 548 1877 948 4010
69 369 169 888 221 1155 52 267 113 575 134 685 147 750 368 1912 799 4200
160 847 306 1623 326 1725 19 102 35 188 35 193 0 4 368 5 818 1 799 -7 1393
3 1596 26 134 16 177 41 541 321 44 34 80 65 80 69 0 3 -39 40 -86 81 -47 41
-129 113 -183 161 -128 115 -231 183 -314 208 -157 46 -671 61 -1615 48 -384
-5 -701 -7 -704 -4 -3 3 27 157 66 343 40 186 160 763 267 1283 394 1909 568
2689 791 3535 101 386 145 518 229 694 87 181 160 288 274 401 197 195 416
280 718 280 256 -1 590 -83 926 -229 47 -21 48 -22 31 -41 -9 -10 -96 -74
-193 -142 -97 -68 -214 -159 -260 -203 -98 -93 -128 -149 -216 -398 -165 -464
-232 -796 -224 -1100 4 -174 13 -194 137 -318 180 -179 450 -319 615 -319 64
0 225 37 394 91 315 101 607 254 804 423 318 272 494 732 449 1176 -72 705
-543 1322 -1213 1584 -423 166 -894 237 -1348 205z"/>
<path d="M19448 19730 c-17 -10 -18 -316 -18 -6193 0 -4321 3 -6193 11 -6220
13 -48 37 -73 86 -87 21 -5 571 -98 1223 -206 652 -107 1549 -255 1993 -329
444 -75 818 -132 832 -129 13 3 31 14 40 24 21 23 65 235 65 313 0 92 -26 113
-235 191 -297 110 -623 260 -812 372 -623 371 -1008 980 -1168 1847 -51 282
-94 657 -115 1024 -11 188 -15 6589 -4 6617 3 9 10 16 14 16 5 0 431 -417 947
-927 516 -511 1467 -1450 2113 -2088 646 -638 1471 -1453 1832 -1812 361 -359
671 -661 690 -673 46 -28 88 -25 134 9 21 16 282 251 579 522 430 392 4449
4048 4664 4242 47 42 56 46 69 34 12 -13 14 -380 12 -2833 0 -1551 -5 -2954
-10 -3119 -18 -618 -110 -1069 -287 -1405 -347 -660 -1017 -1031 -2053 -1135
-190 -19 -229 -32 -247 -85 -14 -42 -16 -181 -3 -269 13 -95 33 -111 133 -111
62 0 1313 110 3111 274 169 15 197 25 223 77 10 19 12 1274 10 6022 l-2 5999
-28 24 c-25 21 -37 24 -115 24 -155 0 -263 -38 -362 -127 -30 -26 -446 -406
-925 -843 -478 -438 -1745 -1594 -2815 -2570 -1070 -976 -2147 -1959 -2394
-2185 -246 -225 -465 -420 -485 -432 -43 -27 -78 -29 -111 -6 -14 9 -151 140
-305 292 -431 425 -4015 3972 -4975 4925 -470 466 -873 861 -895 876 -69 48
-128 62 -270 67 -83 2 -136 0 -147 -7z"/>
<path d="M42767 17513 c-4 -3 -7 -539 -7 -1190 l0 -1183 -680 0 -680 0 0 -670
0 -670 680 0 679 0 4 -2287 c3 -2114 4 -2297 20 -2403 84 -551 267 -935 603
-1260 235 -228 490 -383 794 -484 278 -92 482 -121 850 -120 282 0 419 10 675
50 235 36 605 133 605 158 0 9 -449 1287 -454 1293 -1 1 -37 -11 -80 -28 -201
-78 -422 -116 -621 -106 -225 11 -406 84 -591 237 -206 171 -307 445 -334 906
-6 100 -10 964 -10 2106 l0 1938 953 2 952 3 0 665 0 665 -952 3 -953 2 0
1190 0 1190 -723 0 c-398 0 -727 -3 -730 -7z"/>
<path d="M37225 15383 c-1121 -72 -2014 -510 -2647 -1300 -127 -158 -164 -212
-152 -222 5 -4 294 -187 642 -406 l633 -398 16 23 c105 150 260 328 378 433
359 320 736 492 1225 558 144 20 499 17 640 -5 449 -69 822 -256 1154 -576
327 -315 494 -666 526 -1099 11 -153 13 -454 3 -449 -5 2 -53 26 -109 55 -438
225 -980 360 -1612 403 -197 13 -621 13 -810 0 -978 -69 -1740 -377 -2282
-920 -422 -424 -641 -950 -666 -1601 -29 -744 233 -1398 762 -1909 479 -462
1057 -734 1754 -825 300 -39 669 -39 940 1 489 72 912 255 1300 564 198 157
452 432 622 673 41 57 52 67 78 67 l30 0 0 -540 0 -540 700 0 700 0 0 2368 c0
1336 -4 2463 -10 2587 -22 517 -113 930 -290 1318 -141 309 -309 548 -564 802
-174 174 -293 271 -471 387 -481 314 -1073 496 -1780 548 -126 9 -585 11 -710
3z m1105 -4182 c491 -67 864 -196 1177 -405 159 -106 143 -78 133 -240 -38
-555 -258 -1011 -691 -1431 -213 -207 -423 -357 -663 -474 -302 -149 -577
-217 -917 -228 -431 -14 -779 79 -1101 294 -312 208 -499 463 -570 777 -28
122 -30 361 -5 489 45 225 154 428 325 608 286 301 691 508 1162 594 214 39
284 44 650 40 282 -3 373 -7 500 -24z"/>
<path d="M56005 15379 c-1134 -95 -2068 -591 -2760 -1463 -591 -746 -892
-1719 -862 -2786 22 -739 168 -1347 462 -1917 480 -930 1326 -1640 2300 -1927
720 -212 1565 -229 2300 -45 636 159 1195 472 1678 939 348 336 623 702 814
1085 209 417 346 895 410 1430 26 218 26 894 0 1110 -116 961 -446 1692 -1069
2365 -637 687 -1424 1082 -2388 1196 -160 19 -718 27 -885 13z m715 -1345
c528 -68 1003 -307 1400 -705 214 -216 364 -426 495 -694 149 -304 230 -588
277 -975 17 -139 17 -679 0 -820 -69 -568 -238 -1014 -533 -1406 -95 -127
-316 -354 -444 -457 -346 -279 -712 -436 -1170 -503 -147 -22 -550 -25 -695
-6 -686 92 -1247 424 -1667 986 -388 519 -571 1206 -533 1989 17 328 63 585
156 867 127 384 335 720 624 1011 150 151 252 235 415 344 473 317 1065 447
1675 369z"/>
<path d="M68715 15379 c-1134 -95 -2068 -591 -2760 -1463 -591 -746 -892
-1719 -862 -2786 22 -739 168 -1347 462 -1917 480 -930 1326 -1640 2300 -1927
720 -212 1565 -229 2300 -45 636 159 1195 472 1678 939 348 336 623 702 814
1085 209 417 346 895 410 1430 26 218 26 894 0 1110 -116 961 -446 1692 -1069
2365 -637 687 -1424 1082 -2388 1196 -160 19 -718 27 -885 13z m715 -1345
c528 -68 1003 -307 1400 -705 214 -216 364 -426 495 -694 149 -304 230 -588
277 -975 17 -139 17 -679 0 -820 -69 -568 -238 -1014 -533 -1406 -95 -127
-316 -354 -444 -457 -346 -279 -712 -436 -1170 -503 -147 -22 -550 -25 -695
-6 -686 92 -1247 424 -1667 986 -388 519 -571 1206 -533 1989 17 328 63 585
156 867 127 384 335 720 624 1011 150 151 252 235 415 344 473 317 1065 447
1675 369z"/>
<path d="M64535 15354 c-422 -46 -833 -205 -1250 -484 -381 -255 -680 -602
-806 -937 -23 -60 -26 -63 -56 -63 l-33 0 0 635 0 635 -695 0 -695 0 0 -3885
0 -3885 730 0 730 0 3 2278 c3 2251 3 2278 24 2387 95 509 314 913 690 1276
176 170 340 285 538 380 295 141 583 190 997 170 277 -14 438 -37 576 -82 35
-12 66 -19 68 -16 13 13 444 1401 437 1408 -11 10 -166 65 -248 88 -101 29
-253 59 -385 76 -111 15 -541 28 -625 19z"/>
<path d="M14185 15293 c-298 -20 -746 -110 -1070 -214 -287 -92 -642 -254
-873 -399 -641 -403 -1135 -1012 -1435 -1770 -211 -533 -303 -1090 -276 -1678
35 -778 272 -1609 645 -2257 520 -906 1395 -1581 2386 -1839 764 -200 1627
-134 2478 191 1100 419 1937 1290 2305 2398 59 179 103 341 93 350 -3 3 -313
69 -689 145 -376 77 -692 142 -702 144 -10 3 -20 -1 -22 -7 -136 -459 -279
-763 -490 -1046 -436 -583 -1145 -921 -1930 -921 -398 0 -729 81 -1100 268
-258 130 -462 279 -650 473 -271 280 -456 592 -600 1011 l-54 157 37 10 c20 6
1348 347 2951 760 1602 413 2916 752 2918 755 11 10 -22 173 -67 331 -188 662
-453 1238 -775 1685 -290 403 -667 754 -1057 986 -445 264 -917 417 -1428 464
-105 9 -475 11 -595 3z m522 -1358 c611 -80 1151 -440 1449 -966 64 -114 167
-350 156 -360 -4 -3 -965 -253 -2137 -554 -1171 -302 -2139 -550 -2149 -553
-18 -5 -19 1 -13 189 16 495 138 898 385 1268 220 330 476 556 824 726 260
128 576 216 913 254 125 15 446 12 572 -4z"/>
</g>
</svg>
